<svg version="1.1" viewBox="0 0 64 64" xmlns="http://www.w3.org/2000/svg">
  <rect width="64" height="64" fill="none" style="paint-order:stroke markers fill"/>
  <g transform="matrix(1.0244 0 0 1.0244 -.78105 -.78105)" fill="none" stroke="#000" stroke-width="3.9047">
    <path d="m8 8 48 48" style="paint-order:stroke markers fill"/>
    <path d="m8 56 48-48" style="paint-order:stroke markers fill"/>
  </g>
</svg>
